^C:\USERS\PAVELZ\SOURCE\REPOS\HOMEWORK19\HOMEWORK19\SOURCE.CPP
C:\USERS\PAVELZ\SOURCE\REPOS\HOMEWORK19\HOMEWORK19\DEBUG\VC142.PDB
C:\USERS\PAVELZ\SOURCE\REPOS\HOMEWORK19\HOMEWORK19\DEBUG\VC142.IDB
C:\USERS\PAVELZ\SOURCE\REPOS\HOMEWORK19\HOMEWORK19\DEBUG\SOURCE.OBJ
